…
    ## Rows: 4342 Columns: 20
    ## ── Column specification ────────────────────────────────────────────────────────
    ## Delimiter: ","
    ## dbl (20): babysex, bhead, blength, bwt, delwt, fincome, frace, gaweeks, malf...
    ## 
    ## ℹ Use `spec()` to retrieve the full column specification for this data.
    ## ℹ Specify the column types or set `show_col_types = FALSE` to quiet this message.

``` r
bwt_df
```

    ## # A tibble: 200 × 20
    ##    babysex bhead blength   bwt delwt fincome frace      gaweeks malform menarche
    ##    <fct>   <dbl>   <dbl> <dbl> <dbl>   <dbl> <fct>        <dbl> <lgl>      <dbl>
    ##  1 male       34      50  3459   124      25 black         35.9 FALSE         13
    ##  2 female     35      51  3827   130      45 white         41.3 FALSE         12
    ##  3 male       33      49  3033   117      65 white         38.9 FALSE         14
    ##  4 female     35      51  3232   136      85 white         42.4 FALSE         11
    ##  5 female     34      49  3118   126      25 black         38.7 FALSE         13
    ##  6 female     32      50  2551   111      25 puerto ri…    35.9 FALSE         13
    ##  7 male       34      51  2835   136      75 white         41   FALSE         14
    ##  8 male       33      48  2495   113      25 black         38.7 FALSE         13
    ##  9 female     35      51  3203   183      15 black         39.4 FALSE         15
    ## 10 female     33      47  2807   136      25 white         39.4 FALSE         12
    ## # ℹ 190 more rows
    ## # ℹ 10 more variables: mheight <dbl>, momage <dbl>, mrace <fct>, parity <dbl>,
    ## #   pnumlbw <dbl>, pnumsga <dbl>, ppbmi <dbl>, ppwt <dbl>, smoken <dbl>,
    ## #   wtgain <dbl>
…
